{
  "page": {
    "title": "Contact | Hotel Piano Lublin",
    "description": "Wszystkie informacje potrzebne do nawiązania kontaktu z hotelem."
  },
  "sections": {
    "header": {
      "id": "contact",
      "title": "Contact",
      "description": "",
      "navigation": {
        "main": {
          "placeholder": "Replace with real content!"
        }
      },
      "logo": {
        "title": "Piano",
        "subtitle": "Hotel and Restaurant"
      }
    },
    "mini_features": {
      "features": [
        {
          "title": "Location",
          "description": [
            "Hotel Piano",
            "ul. Jana Pawła II 19",
            "20-535 Lublin"
          ]
        },
        {
          "title": "Front Desk",
          "description": [
            "e-mail: recepcja@piano-lublin.pl",
            "tel: 81 458 38 33",
            "fax: 81 458 38 31"
          ]
        },
        {
          "title": "Office",
          "description": [
            "e-mail: biuro@piano-lublin.pl",
            "tel: 506 131 164"
          ]
        },
        {
          "title": "Conferences and group reservations",
          "description": [
            "e-mail: dariuszkuszneruk@piano-lublin.pl",
            "tel: 512 089 902"
          ]
        },
        {
          "title": "Special occasions and events",
          "description": [
            "e-mail: agnieszkakozak@piano-lublin.pl",
            "tel: 512 524 021"
          ]
        },
        {
          "title": "Bank transfer data",
          "description": [
            "Bank Pekao SA",
            "1612 4023 8211 1100 1036 4286 44",
            "Hotele A. Podolska i Spółka sp.j.",
            "20-535 Lublin, ul. Jana Pawła II 19",
            "NIP: 712 323 00 43"
          ]
        }
      ]
    }
  }
}
