{
  "page": {
    "title": "Rooms | Hotel Piano Lublin",
    "description": "Hotel Piano offers 39 modern and comfortably furnished rooms equipped with all the necessary facilities."
  },
  "sections": {
    "header": {
      "id": "rooms",
      "title": "Rooms",
      "description": "Hotel Piano offers 39 modern and comfortably furnished rooms equipped with all the necessary facilities.",
      "navigation": {
        "main": {
          "placeholder": "Replace with real content!"
        }
      },
      "logo": {
        "title": "Piano",
        "subtitle": "Hotel and Restaurant"
      }
    },
    "features": {
      "title": "Common features",
      "description": [
        "Silence and climatic design in combination with a large and comfortable bed will allow you to relax and recuperate after a hard day at work or traveling.",
        "For each guest is provided a welcome kit containing a set of basic toiletries, fluffy towels and tea and coffee."
      ],
      "list": [
        "Air conditioning",
        "Luxurious bathroom",
        "Wireless Internet",
        "Television",
        "Phone",
        "Safe",
        "Access to the fitness area",
        "The breakfast in the hotel restaurant",
        "In room coffee and tea making facilities",
        "Hair dryer",
        "The spacious wardrobe",
        "Table, chairs and table lamp"
      ]
    },
    "rooms": {
      "title": "Available room types",
      "labels": {
        "price": "Price",
        "area": "Area",
        "reserve": "Reserve",
        "area_unit": "Sq m",
        "currency": "PLN"
      },
      "types": [
        {
          "id": "single",
          "name": "Single",
          "price": "205",
          "area": "17-20",
          "photos": [
            {
              "src": "/images/rooms/single.jpg",
              "alt": ""
            }
          ]
        },
        {
          "id": "twin",
          "name": "Twin",
          "price": "245",
          "area": "20-25",
          "photos": [
            {
              "src": "/images/rooms/twin.jpg",
              "alt": ""
            }
          ]
        },
        {
          "id": "double",
          "name": "Double",
          "price": "255",
          "area": "25-30",
          "photos": [
            {
              "src": "/images/rooms/double.jpg",
              "alt": ""
            }
          ]
        },
        {
          "id": "suite",
          "name": "Suite",
          "price": "330",
          "area": "48",
          "photos": [
            {
              "src": "/images/rooms/suite.jpg",
              "alt": ""
            }
          ]
        }
      ]
    }
  }
}
